000000
f2f0e5
b8b5b9
868188
646365
45444f
3a3858
212123
352b42
43436a
4b80ca
68c2d3
a2dcc7
ede19e
d3a068
b45252
6a536e
4b4158
80493a
a77b5b
e5ceb4
c2d368
8ab060
567b79
4e584a
7b7243
b2b47e
edc8c4
cf8acb
5f556a
